<?xml version="1.0" encoding="UTF-8" standalone="no"?>
<!-- Created with Inkscape (http://www.inkscape.org/) -->

<svg
   version="1.1"
   id="svg2"
   width="2048"
   height="2048"
   viewBox="0 0 2048 2048"
   sodipodi:docname="epicyon.svg"
   inkscape:version="1.1.2 (0a00cf5339, 2022-02-04)"
   xmlns:inkscape="http://www.inkscape.org/namespaces/inkscape"
   xmlns:sodipodi="http://sodipodi.sourceforge.net/DTD/sodipodi-0.dtd"
   xmlns:xlink="http://www.w3.org/1999/xlink"
   xmlns="http://www.w3.org/2000/svg"
   xmlns:svg="http://www.w3.org/2000/svg">
  <defs
     id="defs6" />
  <sodipodi:namedview
     id="namedview4"
     pagecolor="#ffffff"
     bordercolor="#666666"
     borderopacity="1.0"
     inkscape:pageshadow="2"
     inkscape:pageopacity="0.0"
     inkscape:pagecheckerboard="0"
     showgrid="false"
     inkscape:zoom="0.29248047"
     inkscape:cx="1798.4107"
     inkscape:cy="1017.1619"
     inkscape:window-width="1080"
     inkscape:window-height="1836"
     inkscape:window-x="0"
     inkscape:window-y="29"
     inkscape:window-maximized="1"
     inkscape:current-layer="g8" />
  <g
     inkscape:groupmode="layer"
     inkscape:label="Image"
     id="g8">
    <image
       width="2048"
       height="2048"
       preserveAspectRatio="none"
       style="image-rendering:optimizeQuality"
       xlink:href="data:image/png;base64,iVBORw0KGgoAAAANSUhEUgAACAAAAAgAAQMAAACIaUFzAAADJ3pUWHRSYXcgcHJvZmlsZSB0eXBl IGV4aWYAAHja7ZdLchwhDIb3nCJHQBJC4jg0NFW5QY6fH/phz9jluCpZZDFQDYwaJKFP0HbYf/0c 4QcKx+QhqXkuOUeUVFLhioHHo2yrpZhWexU/pQ/ycL9giAS9HC8Kn8t2yOd4nPLTCF3zb0XngCpG +vaiXgu2R/l26md/VnR6IHRa7ueCU5HwIad0/G756HNxe9har++2cEXgfDIjensmY8NOs+SRO6rm 3Zba7TQ6PQ7PghV0Q9i7whFh3oUkohU5PZT5sFT0GS1JwjwK64dCOF/oCnoERo4Gr89tjIsiAvk+ Lu9IHh49ly+3VKB4n24/Kgz38DFX6LNcuUdPqQKH6VAkjyhjvvtP5aRPcrk8moDfWfZ8W36Qm9wm 4jPhMEb3sTaNXdSUwSufm7q2skaYh1xMspZlVMOjGNuqJSB4HmtsSLgeGxJ3w7gQg/mgRJ0qDdpX 36jBxcQ7G3rmxrJkLsYlcAN25MKsNNikSBdHnrSVO0n49oVgdNa2jDkMd8JMJihDHvG/qV8qGqPN EFH0O1bwi+eJhBuT3GwxC0ACjTOougJ81ecyuQoI6gqzY4M1boeKTWll9pFcskALJir646ST9VMB QgTbCmdIQCBmEqVM0ZiNCHF0CgU4ojNO3gYEpModTnISyYDjPG1jjZGDZWXlQ4ybFCAUJ9WApkgN gJWSIn8sOXKoqmhS1aymrkUrTlrCKcvZ8rySq4klU8tm5lasunhy9Rzc3L14LVwEV7aWXKx4KaVW GK3QXLG6YkKtG2+ypU23vNnmW9lqQ/a01LTl0Kx5K6127tJxCeGYW/deet1pRyrtadcdx373vex1 INWGjDR05GHDRxn1jdqJ9UP9PjW6qPEiNSfaTQ1Ss0sFzetEJzMQ40QgbpMAIbEns+iBUuJJbjLD NwinQhlO6oTTaRIDwbQT66Cb3Ru5m1tAPP+WG09yYaL7F+TCRPcFuY/cPqE2P2kBl4IsQvMYzqBG welrvbJX3nBf+Bx4nd/Wr/rwpwnf7V+KXopeil6KXopeil6K/lNF+OMB/wSG33A4w46juleIAAAB hWlDQ1BJQ0MgcHJvZmlsZQAAeJx9kT1Iw0AcxV9TtUWqHewg4pChOlnwC3HUKhShQqkVWnUwufRD aNKQpLg4Cq4FBz8Wqw4uzro6uAqC4AeIo5OToouU+L+k0CLGg+N+vLv3uHsHCPUyU82OUUDVLCOd iIvZ3IoYeEUXehHGGIISM/XZVCoJz/F1Dx9f72I8y/vcn6NHyZsM8InEM0w3LOJ14qlNS+e8Txxh JUkhPiceMeiCxI9cl11+41x0WOCZESOTniOOEIvFNpbbmJUMlXiSOKqoGuULWZcVzluc1XKVNe/J XxjKa8tLXKc5iAQWsIgURMioYgNlWIjRqpFiIk37cQ//gONPkUsm1wYYOeZRgQrJ8YP/we9uzcLE uJsUigOdL7b9MQQEdoFGzba/j227cQL4n4ErreWv1IHpT9JrLS16BIS3gYvrlibvAZc7QP+TLhmS I/lpCoUC8H5G35QD+m6B7lW3t+Y+Th+ADHWVvAEODoHhImWvebw72N7bv2ea/f0AVTtymzJac7AA AA7gaVRYdFhNTDpjb20uYWRvYmUueG1wAAAAAAA8P3hwYWNrZXQgYmVnaW49Iu+7vyIgaWQ9Ilc1 TTBNcENlaGlIenJlU3pOVGN6a2M5ZCI/Pgo8eDp4bXBtZXRhIHhtbG5zOng9ImFkb2JlOm5zOm1l dGEvIiB4OnhtcHRrPSJYTVAgQ29yZSA0LjQuMC1FeGl2MiI+CiA8cmRmOlJERiB4bWxuczpyZGY9 Imh0dHA6Ly93d3cudzMub3JnLzE5OTkvMDIvMjItcmRmLXN5bnRheC1ucyMiPgogIDxyZGY6RGVz Y3JpcHRpb24gcmRmOmFib3V0PSIiCiAgICB4bWxuczp4bXBNTT0iaHR0cDovL25zLmFkb2JlLmNv bS94YXAvMS4wL21tLyIKICAgIHhtbG5zOnN0RXZ0PSJodHRwOi8vbnMuYWRvYmUuY29tL3hhcC8x LjAvc1R5cGUvUmVzb3VyY2VFdmVudCMiCiAgICB4bWxuczpkYz0iaHR0cDovL3B1cmwub3JnL2Rj L2VsZW1lbnRzLzEuMS8iCiAgICB4bWxuczpHSU1QPSJodHRwOi8vd3d3LmdpbXAub3JnL3htcC8i CiAgICB4bWxuczp0aWZmPSJodHRwOi8vbnMuYWRvYmUuY29tL3RpZmYvMS4wLyIKICAgIHhtbG5z OnhtcD0iaHR0cDovL25zLmFkb2JlLmNvbS94YXAvMS4wLyIKICAgeG1wTU06RG9jdW1lbnRJRD0i Z2ltcDpkb2NpZDpnaW1wOjdmNTU4YTVkLTAyZTAtNGZiZi04NjJiLTc5M2Q2ZjZjN2M3NSIKICAg eG1wTU06SW5zdGFuY2VJRD0ieG1wLmlpZDozMDMwZWFkYy1kM2YyLTRmZWItYWVlZS0wYTQwYjVk OGRjMWQiCiAgIHhtcE1NOk9yaWdpbmFsRG9jdW1lbnRJRD0ieG1wLmRpZDpiNzhkZTUyYS03YzY0 LTRiZmMtYWVjYy0xMTVkY2M0MzVmYzQiCiAgIGRjOkZvcm1hdD0iaW1hZ2UvcG5nIgogICBHSU1Q OkFQST0iMi4wIgogICBHSU1QOlBsYXRmb3JtPSJMaW51eCIKICAgR0lNUDpUaW1lU3RhbXA9IjE2 NTUyMjE4MDUyODg5OTciCiAgIEdJTVA6VmVyc2lvbj0iMi4xMC4zMCIKICAgdGlmZjpPcmllbnRh dGlvbj0iMSIKICAgeG1wOkNyZWF0b3JUb29sPSJHSU1QIDIuMTAiPgogICA8eG1wTU06SGlzdG9y eT4KICAgIDxyZGY6U2VxPgogICAgIDxyZGY6bGkKICAgICAgc3RFdnQ6YWN0aW9uPSJzYXZlZCIK ICAgICAgc3RFdnQ6Y2hhbmdlZD0iLyIKICAgICAgc3RFdnQ6aW5zdGFuY2VJRD0ieG1wLmlpZDph ZmUxNjEyZS0yYmFiLTQ4NjgtYTNlMS1hMTQzMTQ1OThjNWEiCiAgICAgIHN0RXZ0OnNvZnR3YXJl QWdlbnQ9IkdpbXAgMi4xMCAoTGludXgpIgogICAgICBzdEV2dDp3aGVuPSIyMDIxLTEyLTEyVDIx OjI2OjA1KzAwOjAwIi8+CiAgICAgPHJkZjpsaQogICAgICBzdEV2dDphY3Rpb249InNhdmVkIgog ICAgICBzdEV2dDpjaGFuZ2VkPSIvIgogICAgICBzdEV2dDppbnN0YW5jZUlEPSJ4bXAuaWlkOjFj ZjUxMzYxLTVlMDEtNGFlMi1hNmZiLWFhYjZiMjI2M2IyZCIKICAgICAgc3RFdnQ6c29mdHdhcmVB Z2VudD0iR2ltcCAyLjEwIChMaW51eCkiCiAgICAgIHN0RXZ0OndoZW49IjIwMjItMDYtMTRUMTY6 NDg6MzgrMDE6MDAiLz4KICAgICA8cmRmOmxpCiAgICAgIHN0RXZ0OmFjdGlvbj0ic2F2ZWQiCiAg ICAgIHN0RXZ0OmNoYW5nZWQ9Ii8iCiAgICAgIHN0RXZ0Omluc3RhbmNlSUQ9InhtcC5paWQ6OGY1 ZGQwZDUtOTBkNi00YWQxLWEyN2UtYWNiYTFjNTQzZWNmIgogICAgICBzdEV2dDpzb2Z0d2FyZUFn ZW50PSJHaW1wIDIuMTAgKExpbnV4KSIKICAgICAgc3RFdnQ6d2hlbj0iMjAyMi0wNi0xNFQxNjo1 MDowNSswMTowMCIvPgogICAgPC9yZGY6U2VxPgogICA8L3htcE1NOkhpc3Rvcnk+CiAgPC9yZGY6 RGVzY3JpcHRpb24+CiA8L3JkZjpSREY+CjwveDp4bXBtZXRhPgogICAgICAgICAgICAgICAgICAg ICAgICAgICAgICAgICAgICAgICAgICAgICAgICAgICAgICAgICAgICAgICAgICAgICAgICAgICAg ICAgICAgICAgICAgICAgICAgICAgICAgCiAgICAgICAgICAgICAgICAgICAgICAgICAgICAgICAg ICAgICAgICAgICAgICAgICAgICAgICAgICAgICAgICAgICAgICAgICAgICAgICAgICAgICAgICAg ICAgICAgICAgICAKICAgICAgICAgICAgICAgICAgICAgICAgICAgICAgICAgICAgICAgICAgICAg ICAgICAgICAgICAgICAgICAgICAgICAgICAgICAgICAgICAgICAgICAgICAgICAgICAgICAgIAog ICAgICAgICAgICAgICAgICAgICAgICAgICAgICAgICAgICAgICAgICAgICAgICAgICAgICAgICAg ICAgICAgICAgICAgICAgICAgICAgICAgICAgICAgICAgICAgICAgICAgCiAgICAgICAgICAgICAg ICAgICAgICAgICAgICAgICAgICAgICAgICAgICAgICAgICAgICAgICAgICAgICAgICAgICAgICAg ICAgICAgICAgICAgICAgICAgICAgICAgICAgICAKICAgICAgICAgICAgICAgICAgICAgICAgICAg ICAgICAgICAgICAgICAgICAgICAgICAgICAgICAgICAgICAgICAgICAgICAgICAgICAgICAgICAg ICAgICAgICAgICAgICAgIAogICAgICAgICAgICAgICAgICAgICAgICAgICAgICAgICAgICAgICAg ICAgICAgICAgICAgICAgICAgICAgICAgICAgICAgICAgICAgICAgICAgICAgICAgICAgICAgICAg ICAgCiAgICAgICAgICAgICAgICAgICAgICAgICAgICAgICAgICAgICAgICAgICAgICAgICAgICAg ICAgICAgICAgICAgICAgICAgICAgICAgICAgICAgICAgICAgICAgICAgICAgICAKICAgICAgICAg ICAgICAgICAgICAgICAgICAgICAgICAgICAgICAgICAgICAgICAgICAgICAgICAgICAgICAgICAg ICAgICAgICAgICAgICAgICAgICAgICAgICAgICAgICAgIAogICAgICAgICAgICAgICAgICAgICAg ICAgICAgICAgICAgICAgICAgICAgICAgICAgICAgICAgICAgICAgICAgICAgICAgICAgICAgICAg ICAgICAgICAgICAgICAgICAgICAgCiAgICAgICAgICAgICAgICAgICAgICAgICAgICAgICAgICAg ICAgICAgICAgICAgICAgICAgICAgICAgICAgICAgICAgICAgICAgICAgICAgICAgICAgICAgICAg ICAgICAgICAKICAgICAgICAgICAgICAgICAgICAgICAgICAgICAgICAgICAgICAgICAgICAgICAg ICAgICAgICAgICAgICAgICAgICAgICAgICAgICAgICAgICAgICAgICAgICAgICAgICAgIAogICAg ICAgICAgICAgICAgICAgICAgICAgICAgICAgICAgICAgICAgICAgICAgICAgICAgICAgICAgICAg ICAgICAgICAgICAgICAgICAgICAgICAgICAgICAgICAgICAgICAgCiAgICAgICAgICAgICAgICAg ICAgICAgICAgICAgICAgICAgICAgICAgICAgICAgICAgICAgICAgICAgICAgICAgICAgICAgICAg ICAgICAgICAgICAgICAgICAgICAgICAgICAKICAgICAgICAgICAgICAgICAgICAgICAgICAgICAg ICAgICAgICAgICAgICAgICAgICAgICAgICAgICAgICAgICAgICAgICAgICAgICAgICAgICAgICAg ICAgICAgICAgICAgIAogICAgICAgICAgICAgICAgICAgICAgICAgICAgICAgICAgICAgICAgICAg ICAgICAgICAgICAgICAgICAgICAgICAgICAgICAgICAgICAgICAgICAgICAgICAgICAgICAgICAg CiAgICAgICAgICAgICAgICAgICAgICAgICAgICAgICAgICAgICAgICAgICAgICAgICAgICAgICAg ICAgICAgICAgICAgICAgICAgICAgICAgICAgICAgICAgICAgICAgICAgICAKICAgICAgICAgICAg ICAgICAgICAgICAgICAgICAgICAgICAgICAgICAgICAgICAgICAgICAgICAgICAgICAgICAgICAg ICAgICAgICAgICAgICAgICAgICAgICAgICAgICAgIAogICAgICAgICAgICAgICAgICAgICAgICAg ICAgICAgICAgICAgICAgICAgICAgICAgICAgICAgICAgICAgICAgICAgICAgICAgICAgICAgICAg ICAgICAgICAgICAgICAgICAgCiAgICAgICAgICAgICAgICAgICAgICAgICAgICAgICAgICAgICAg ICAgICAgICAgICAgICAgICAgICAgICAgICAgICAgICAgICAgICAgICAgICAgICAgICAgICAgICAg ICAgICAKICAgICAgICAgICAgICAgICAgICAgICAgICAgCjw/eHBhY2tldCBlbmQ9InciPz5sc3Io AAAABlBMVEVWBQBlboYG6bSiAAAAAXRSTlMAQObYZgAAAAFiS0dEAIgFHUgAAAAJcEhZcwAADsQA AA7EAZUrDhsAAAAHdElNRQfmBg4PMgX1EDdvAAAAFnRFWHRDb21tZW50AGJpbmFyeSBjb21tZW50 xeSgegAAIABJREFUeNrt3buu5bySIGixCAy94gs0wEcod4wGeB6pzfEooB9sNCijH2NUaON4UzKO oQHUYp/8M3NvXXhnBKmVijC66+S/99rSt6hg8CJpGCgoKCgoKCgoKCgoKCgoKCgoKCgoKCgoKCgo KCgoKCgoKCgoKCgoKCgoKCgoKCgoKCgoKCgoKCgoKCgoKCgoKCgoKCgoKCgoKCgoKCgoKCgoKCgo KCgoKCgoKCgoKCgoKCgoKCgoKCgoKCgoKCgoKCgoKCgoKCgoKCgoKCgoKCgoKCgoKCgoKCgoKCgo KCgoKCgoKCgoKCgoKCgoKCgoKCgoKCgoKCgoKCgoKCgoKCgoKCgoKCgoKCgoKCgoKCgoKCgoKCgo KCheEXz55/+jXgxg/4rlteevfwLY8aXnL3+dv11ffQH8iOmdGfAbYH8lgPgGsPOrU8Bbm4CyL28C +giwvRDAHAHe2BGcAV5YC9hzjG8HeF8auALs784B1ALe1wKuAG/rCdkNYHk7wPZ2APv2HPC2JGDf ngTM25OAeXsS0G9PAvrtSUDZlycBB8C7koC0L08Cwr48CbgAXpUEuH15EnACvCkJMPvyJOAEeFUS sG9PAubtScC8PQnotycBJ8CbVgeUMwuObweY3z0cfFUW/BoNbS/dKfEFsOt3ZsGv0dAm31kLfgHs /J3dwPdoiL20G/hu9ead3cB3q1fv7Aa+vvdJvLMb+Or9ZvbObkB95z3zyikB9Z339Cu7gcNNQ/KV 3cD3YOC0SvKeOZHvWvg0RfyeboAdTvmV3QA7nLJ+ZTdwGACpV3YD36XgKQu+pxv4LgVPS6Xv6QYO peDwym7gUAqeiuH3lYLLeZJ8fF0puJ53zLymHzyUgqcsOL8OYB9OWfA1AMda+JgF31MIHPO+euO0 oDnkffnGSkgf8v4rH6lxBGBvrISOtfAxC76mEjqWgscpgVeWgscs+L5ScB1OxfD7SsFtOGXB11RC p1LwkAXfUwmdOj79wkrIHAHkCyuhYy18zIKvLAWPWfA1hcCpFHzjEwZPpeAhC74UQL2vEjrVwocs +JpK6FQKHrLg+jqAfXhnFjzXwocs+JokcC591Pu6gXPpI9/XAszpK//uBv7xulp4PuXE9wyHzgDs fQNidSp92PtawOUR89+FwN/eBrCdc+JrugFxBnhfJXSphdV7AezwzkqIvb4UPAOIFwNM5yviNVMi xlMKvmZKRJ+/8vfVwvr8lZvX1cLKA/CaxSHpKwXHtwFcS8HpbYOBt5aCl1pYvBhgfGclxHyl4Gsq Ifv2WUHrKQVfUwmZM8D7KqFLLfy+SkifL/r3VULq7aXgpRZ+Xyko314KireXguLtpeAF4H2zgvxy 0b+uFmavr4Xt26dF7dunRY1vWvSlAOq9o6G3Dga0bzDwuuHgWwcDXoC3DAakb4/E6wFeOhp683Dw paMh73Bwfx3A8s7R0HU8/LrBwHUO6H2joQvA+0ZD9u1rQ5fxsHwvwP7S0ZD2ASxvA7DOuuBN4+HR 1S0SwIvGw9M7R0NegLcMBq79nnk7wOsGA+Ltw8Frx/+60dB1FvB1gwHWF+C/Pghg6zAa4g9487cX oMVgQD/gxdeXyqfpaIg/4eXvl00hTQcDlxeAr28D4I949fd1i3zDS1I/4s3XXoC9eQPoU31enyTZ bjSkn/Hy8+tEeLPBAHe9/n3qCTA7L4mWDaDLXPT1JolWoyHmOv8exZC8XICtBgPCCdDhGhCdAJR9 SBO4bgtqNRqy9iFNgHsBljZ/tnctwC+tr9FoSHoBvp/s1mdCoNFgQNt4zI0B9oYALOH8WyXEa/Hf 5O+LFIBGo8Nr+mkyGlJJAG2GBtfbZJqMhpLOv9HqlLm0uBajIZ4G0KYo0B0AZCLA2hZgajYa0okA TUoB5QWYel8BbUqB64RAg9GQSAZoUQpcJwQajIZUMkCLUuA6IdAAwNgnXQPX4V+D0VD6+bfoB64T Avi3zfAMgAa10PWE8UdDMgOgQRLwA2ClYJ0DgJ8EbieMDmByALaOADv2H3xIErj+LezhoHCdpexY DXsBbLMcOAYyw9QOwA5NhoPaneh4t1kR4wUYkcHPp6h7ZcHrjAjyeJj5zpD1SgLaCzC1yIF7bIw0 tgOYWoyHtf/8OpVCfoAZ94q7/Q3ZZzyk2k4IhFJcn1LID4DRAwU3R4ouSUA2nRCQwT7O9EgCfoAV tb250izvUQpdAXAnBEz48tYdsqBoOSHAIo2bd6gFb8/OwfzLPJbfdftugLecEZGxi/vrB0yzbuAG gDkhoGJV/u9rZBXNRsSs5YyIiWZ3/fukm70A8gaAOSEQH+bJ342x2d07rOGMyDEH/iN0OPOxtWD3 g7bdjIhIKPD07yMRrfpB225GRCVM9snbQ26x+0HTbkZEJ7QA9vWHRaN+0LSbEUma7tVfbd606QdN sxkRllTfST1fUgZyN6C9e0RmxBwYyGzy+t2sbQHwOmCZO8hVTbqBdlNCOneaQzTpBlSzGRGTu+TF m6wNNANg+esdTfpB/5QQ8LXH8wf5ukU/2AxA5k/zqBbjQf+c2I51rSXnV9GiEPDPiQEnH5M/181a FALNAEom+1sUAv45MdjsW/TIFN2gEGgFIEpmemWDQiAAANr9qJK5ftmgEAhMCoIC6JLVHtGgEAgA gPa/pmTBkze9kXl3j45azoZ4AJZOAAtKQ8u5ppsUAtd+X6KMhnjRch9rUQiYJgCibMG3xYyAHwAS XpYt+ZsGhcC18BEoAKps14tpUAhoL8CO8leyuvUWMwJXAI4CYMo2frWYEbguBXGU4WDhng/VoBBo AsAKd/3IBoXAFYBh7E7hhfu+ZINCQLYAEGWdQJOlgdtaGMb2HFl4G4xosDTQBEAV7v4VDZYGhB8A rvfRhTeBiAZL5LfFQIwNWqZw6+e/NNgqxv0AcN1v8ebfHgAaHoAVb/82+JVQCwBefC+kwS8Ebhvk FfyEgCi+BUTjFwItAGTxnYCqKwBYw1PF+/9Vg0roemwIU0K6+A4Q2aAS8gOANTxTfA+QaNAPXt46 iDElZIrL66YAOxpA+X2AvMFuST+AhQf4/4bnA8BPCbHy8RVrcNeA9gMA5V5eMcJucNfA9R4Rhgkw FgK0ecbpDQBoGF6TVQx+JXQFGBAB9uL2iVgJyWv7BAeoqS01/pxQAGCGbmNr8e/ODQHMEwEQCwHh BwD6qzVTLLIlwIQ0JVTTpCR+JRQAWKEBpuKjQ6yEODpATWXF8Sshfm2gCg1grzi6FnNiSABV92Cw rgDbgwDGBgBLfeEWvsbWiuvn9QCItTA2QN29mKYnwN4c4F97jIauLRR6VjTjfmx9v9Q1/mjoQQCO L7rBcNAgA6TfgcAdP9ISYLtmbWiAKZ4tlg7DQT8ATPmlCSC1mJGOUkE0BNivlZGF/fwUgM1XRiFO COhmAAn9xf4sAJAC3FYBsPYAAxbAngBgfQBbAwCLAsDyAEaP358AsKUATO0BFC4ArwQw6JOCNwDY G8gzpgOkq+TVDQFGDACRB7D4rtA/AGBJAVjbA9wWB2EfISDTAZQrUaieADPox89VAOOnAqg8gN13 eC0ApuxDhgewfxxARkZRrhOV6LOiwg+wPABAtAeQoAAZDyZSrhNtCTA/AWD2HN78qQAZ0yvK9Td5 ewDxMgDuBwCYhsl5QKFy/U38DeMPA9g8H4AHcFsfB32wasZ0wE+A/cUA0pUqGsyK+gEA5qFyricn wNAegPUCEM5y4Y8BWBJ/dmoOcF0f7wbAnR0+/g3UjQDmjwEAff90DgBzthTTbmXkGQBrP4CtM8Dg PFPdHsCgAEx1AHsPANsYwLjOtOHS0DMArPvwWgLoXgDaVQo2BNifATC5D+8NAOohAJBvXBM5n6Vc /aVstzjYHUC6SsH3AazdAOwzADb3J4ztAGQvAOHq8LoCTK8AEG0AEn6Yu37yhQCj6x8/FSCrqGKu v8obLg+PBdVbygg3E2B+DsAM99k2nWtxqXwogMqbXeoDwBEBMp8qbxyl4EcDiCKArRvAdP2HGewK SANwvl6t4Q6JG8ACdgXkANg/BiD79ULKVfOgAzA0gOx3zP1pACYXQLryXUOA+foPC9gVkAUw/yEA MhvA+aLZhpuEbgAr2BWQBbC2BRiQAE5XQBbA9mcAnK6AtI9yApjmAAMMgCkG2HsBLJAAp7dM5gHY xwDU7EoQFQCjA6DFNjFQAPV2gHMKSGvBzttDOgAYCABbAMA6A8zXf6jYlcBLAJx3R3wogPggAI0B oGsAFgfA1hBAAwAYW5EEXQD7hwFczj9tNCtcfeZnAvAqgO3zAcSfAVC+L0VVAextAdT1IFU9gIYD 0B8JYKsA7McDsBvA9C4AUdkCxk8HkB8FIK8HKasBdCXA9BSAEagQTgTQAQD7SQD3HJgGYFw//YkA ohZg6QsgagFkIYD9UwB0GYB7RQYfQIAD3HNg0ieJPwXAkQOTPsn9agP8J+wHAMr+KC8E0EGAuR0A rwSQhQDGuaNIoy8PgwMoB0DelbM7Pm3tAVDW7HQZAHf/uEJ/si6/ni6rBLBlAJ631Cv0ly1BA/BC AB0BmD4FQAAATJ8MIAsBbARg/hQAVQbAPJWzstjdADSAoxBOmc7gMQC0boABA9gyAOlZSlSwb73B B+CFACoGgHbnHDCAKAQwni1FsI/6bgAgywC4jQLM7QFKBiC6DED4dtaCvwUWG8BAAOyxQTJogAK4 ZkNSAGQcwH4EAC8E0L7CSVv0bgAUQBQCmASA+RMAVCGAdwZJ26qUlJO2QABOTTl9wx1PAVibA6zl H/ZX2k4HEN79BCbz5sPeAKeCNn3XsfQupBiL3g0Y75xgPsCpFxxN8gepJIDp+QDn22XLARYnwPx8 AHE6iXSAawG9OgGW5wPIU4NNBzBJAEjFsAIEOD8yoBxgc/6X/fkA57IlHcBfOZncFba+AOZ0sCb1 4uX+WVRj0bsBSIDzd5gMIPyrqfm3HfQEYOdjrQCYnABrE4CKt4zw8xmAA2xPBxDnNlwBMLvT4/Rw AHlO48kA95nUxQ0wPxxAnX+1AmBtCKDhAPT5GzSpx32fRtncAOvDAcz5Yk0G0KkA+8MBLv14MoDx T6Llr7N3BLi+WasCwHqm2TG6AeMFyC28ri9pSgY4nOH/fS4FWcktqJUA5W8cvNKVAFx2hjLvMPGJ ANfnsaYCHLcIRgDshwCMZ4ApuYLelO+hPniVgAUDuO7mKABY5flvM4t/DcAB6EKAw1BgudxCzstu QewEcF0HKACYL3dQc4t/DSAArHkAh6HAxM+NiPtHCVDB4ACuv1gAMLIYgH0JgPXNFIAnATiA2+4q kzibe5pHOf+OA2DFBlClALc7LQoAvpvR5AOAvgY4AsBYAXCuy37/p/8f7xqAAxAgAOfB6e/rccWr heAAbredVwEsZwCDtkDEr6dbD7DXAJzvkvqqjBXamFiAAdx2thcByNOHfAFItIkxce1eVGnVqb0A 6ZPC3/9jPx3MwtHKYQSAtRhgvz5M5wuAoQ0J4QD8j2ZMnhXfDznpDDBk34manbrW2xx1JoD1Ppiv CGA8HsxynjpfMQCWZwCwU73zDaCwqkEwgNuD+ssAzsNz83VwAmtWAAzgVgmXJcHBubq2XAbGgD2h 8gNMhQBDFYBxAzCLlAaV/3F6U1l3kg0gTv2bdi0wz9flo+15ALdKuBJguwAopGsAHmDLBTgvqSnX Hov5NjUwgQNMlQD3u3zrAOxlxpYhLRBob+dVDWCzAdZjSxqH8/yQwZkfDwCMZR+05AKc71AQPgCJ s1niUQDLcHmq3vH/LnpgecZxj5UAphjgXERz13U/nX4MtB6GB5hzk+BwyjrsAHkeGSmUJmAeAHA6 BnZICGcAUfJ8pvTjHioBLADA6YPW22NGUdZIbkdpawGm29WVegznvVXbpUt0bKebcAGGvgD77TFK EmO7hAUCYAAA2/XXLp9Q+MTmNIAdDGAsBljPJeV4+wSD0ASgAO7zIenPATtNARxHJ9frUyFsGLkC sI4A8/lKn24Hx0uez9IIwPGmeZXanUj3kvjMYluHAZoAu15NgAAyFeD8kq3v1co7gAJvAo8CuLTz ld/OUoA3AXiAvRhgvx6S4zPBd4zwa1lZCnCfEnQ/Lz8AsF3TkuMz7/dWQL0dd70n2tYA6xVABVoV VBMQfoC9NcBtUdUB4HpQ0fIIAMfB8kyA2dvMd8fYBWhYfFsZqwbY8gH+xTcv7Rj3uq6B9VEAaz7A cAZQoTN0PquqognclgZFIYCuBxi9X/I6hK+BFQBghgJY7gkrCmBO2VwE05xyNYHyYbGGAjDVAHsa QOlDOx8NoE/Zk4c7Otc1UN4VGnCA+T7SPAL8H16A1d/XL868DZIHb3v6ZSGATQMwzmtWnc6ShQc8 7oc2ls4N2bYAzN1i1fkXIyM+7RSYnwIw3ZvXeMtgmwNg8l/ls2fyqX5IcJ/KbANgHeVYIM1Nnuu2 vhhoDSDcl6y0nmfpugHcabCoGLhPZapagDEJYL+NhpZArTP6vrbqYgAXQN++GukHmNIBhv/qzoNV T4G9//ENE8DeDiPUxANfXGUxIOEBHP3V7PhuxwvA7vxavAleAxUDMjDxXA+gAgDz5QtdA9/vPqQ2 gexiQDUBWBxf3LW4m/MAPE8wtsUA2/0QcQHWy2+PgSy/BTvwqmJAowLIG4DxfLrZ3R8WOBINchHc 53FqAXYHgOsRoecz1msIYM0AyBQwqADidgK+q1XOoVp3jfRgFQXhfRqjGcCpH+Rj6NtdIlfdtRqQ BVfuErtKSwBuYz+e+EWlAQifQEZJGNjblplQkwBE4rWq0i5r4xXIHwyiALDQ6jYAQH0TcGztqgXY IABkYmL3NoHUgZxjYw8kwBACWAAA/E1gLgawgJfAcL0kUwGSb4+pbQKOfS2oADKxaBWpo9zaJhAE WOoBTCEAT87p3iaQ1onL0CYcQIDRkd3XpOQcA/A3gekJANcpIZX4FbH067muCdxHwwwFYHZUeFtS gRYFqGsC2AAqALAnA2wDWhO4j4ZxAUxRw94GtCZwHwyy0oG187xkAMAmA6xDWRPYnwOwuFp28iWw DoVNYE4+6u8ffSLAMhQ2AVsAwEEBLjMiLHkVI+uLLB8UOgaDxQAmBLBVAUxDcRMYOwMEnxA6pQJE F7z8TWDNHgzy0tXmIIB1ASyplWBGMs/sCgU2QPAJoVsiQEJv5m8CqTWE66MgAcYKgG2oaQJz5lgI FuDyhFCZWqew3Pk9bouqoXYAs2umKxEgKRmroibg2OIODOC5JTL2B1j2wJ7ZkmooDDAWAazpAHPa 6aQdhyyphhxb3GUpgA4CrBkLPheAPfMbyKmGDDqAPjUxnVql8IJtL7ygGnLs8EYC2F1f0pZ0Mmvu EWRUQxYdQJ0ykUntoXjJej/Lr4Ycf0QhAYy3Cj8VIP0QZG5X6BgLHQGGIoDNfUwuAJsCsBT0RKnV UEuAqRQg5xhyJwYcg0FoAHFqhCYVQBSOyXVeNSQgAVQYYMlKgqJw/zPL6wpdG3d16d5rN8D53ux8 gLwGEMqDY3AA8VSA/A3wWV2hdhwJMMD5+QwNALKygGkIsDcC8AvMgeayubrSDQLgvIO2BQBLT4MM BWD3tLKxEYB/aiRQBqx/EsCQfA2IMMAKAqCPpWAbAJHaDzhfKVUMIN3HrI7+bQBYaimgXAAWC2Bp BuDNArO3w5gBAaznn9eS+YAyAJZ4DZgwwAICIDoAeGuB0ZctJ0iA0Q2wNQTgSYNi1gTg9Dy0VgC+ JrD7mEaXylzY+Uwe5pYAPGV2VDQGGBsC+CbHfI/iGCABZk+mmVoCiIRrQMECcM/vmcO/J0+JVQP4 msA0RAa+xfsj7q/tcyy+2HYAMj4kNLAAzANwXH9sCDDEh4TOCgkAYPXUpVvGwgirB4g/ZiMGMBYC bB6APSMJAgAMsWuAOS+McoDBc1rHqefkxVEIABW5BrgTQIADHBcfsvcH1ACwSCkgnAeCCTBdABI2 SVU9NVmFh4QyBlDa8+6+qnQ+H1LKLTNVAJEHTilnyQMAYH0tcUm+bRAGwDMkmoIAshxAxwDW9DoT BoAHk4B29o2lD9IaHO/rcaw+mMQiAwbA3QS2e7GMC3Bcf5KJrQsIgIeSgHumqAJAeb5dc/jLPPWj YQBCD2Bl7vpYwQPoI/T/xdNWXIAAmD8J8BjAVgww+76Fv2R00lQbEIBzRLBdAXbn17UV/y0vwF// gU8tAZzzAtcOfwMGWHxfQsY0KxgA9yUBFQNYiwFWXy28dgDwvpFBx2ZJsgE8T8u8vFG0OQDzJAFP UWpKlwX8O7uKHlcPB+DKg5dLAwiAe86z6KUlgACOPDj5n2djAQCsd2pm7ALgfFa78kwVF8+Ku/ed Xj5zyv3WYN4sqx1JQLsBWAUAs9FaeO4DwB1JwLNozIonhZ2P5bp+AUsfAMeDmrlnqrwGYLCxlYGM rhUW4NYEFuEB4CAAvpWBjEIAFuDWEWzKMzdZMSvuvAWreIgNDHDrCLRnclKAAGzev94LwL+H+vJ9 VcyJuvdel6pCA8imANabgqZeAKEmsAwgk8Le54YXFRfgAP6bq08HVTEleJv6cQEsma0JDoA1AJA2 tksm+y5QOIDE+0orpgSPCcS3SST9U+EBeNLdREAAmw9g7wfgbwIjzJRgYOZD56dWBACRciNFxZRg AKDgfmQEAN/GsR0MgNnoJpHkQgADIGXvYMWMWGDuS+YXAhgAQ8Im+ioA79yXyC8EUABkvAXYKgDj aen8IQBDvBCqmBFLA0hNLQoFQEavgToAXwplNrt3xQFgsUKgakYs0IfY7EoIB8BTDK1QAN46Mv+J IEgAIlIKgQHs3hJk7ArgKYZmkCnBwFhSZycBLIBIT1gJ4J1PUtlJAAuAhUfEVTNiHwEQSYOVAN4G JJ8DIII9IRzA5PurvQGG4MSoqJkRC8x+5gNINAAVSoMSDGDxNY3uAMFqUNZMCAVmP1l2JYQH4EmD CwiASSgFt94A4r/7rwFZMyE0BJ7BY3OvAUQAz/zweE4Qa22C8Vag/QHc5eByPoGl9pOfDMC810At gPehxDoXQGACuLvCcfC+Fbjk6pqfDMB914CuBGAfAuAcFe+n45zKPthXCKiHAQjPNVAN4FsFVLmV EMcFGDzXgK6aDhj8q4DSZs40YAMo9zVgagGUpxt4HABzXwOmajQ8+O7HPQNMTwBwjgiWegDPjTjJ L1u9fkN4AMJ5DZiq0XBg4J9803AzAGdPONpaAO651oXNXB3DB3ANCJbK0fA5t8wemO0ZAK40uFUD +Ab+PHs8jA4Q2jlYOhr2D/uYza2E8AE4CoCO3ofwGIDAS0lKR8OD916k/LfGNAAQGADSnQXz3xtk 8AFCG6hnCNXVAzA/BUAhAPjSfXbzagEQ2EA9gXymB2DNyKaoACUv5sm6rib3P2+PARBJG6jL+5a5 HmDEFTDwANrd1m1uKdgGQKZsoC7PrJunx8n4HGQABg8g3R9jcjOMqk1GVT3hDpRXRjfAnH5k89Cl CVQAcPeZPhXA0xNuQABLOYBsBMChATwvzDW5pWArAHdPuFZ8oPtSMrkf3wxAQAMYZxbUhQDL0KUJ LFBZZXL+65b+xTQAkMAAyvlBOreTaQcwQI6Gr6Cbu52lA6wNABQsgHB+1yZ3qNEQgEGOhq8d61gK wNsBOJrABOY5Oa+zKRlgawHAAUfD13NdnABzsmMTgAEWwFnzZPcyLVvAfUAA92m7M8+syQB7EwCJ B2A/AoDDjYZvOXVyAWwPAxhAW4B05DueLcxti2lhXxKomogSjtbOU4TFP7FkHwAJWAleTnZLBmCn P90WgAEOhq4f5hx0j97uc7sAjG0EDNiM0C2jjC6AyX/ljM7/2bga3gE1JxfA7D+EtQuAgOwGzP1c RfwaM+e/LSDycXkSqPqz+n6ucYDrE0mFbTUp6EwCgN3A6upm1kAbXLsAKMBuYLgnVBmdd7/es9ka gMNNC7uGQzJabGtPx9kKYIDsB1UUwIb+/tgFQAP2g+J2rlEAds3AsjWABOwH2a0SkrEpl9t++uYA HLAfvO8GULFZR33NwM0BBsB+8Hy+swtgDpCtfQA0YD8orh8VBfB2nO0AJGA/yK8fpSKLb8zbb7QD GAD7wdsXqiLrz+yWgVV7AA3XD54u6d0FsIVS8NgHQML1g+cTdgHsIYCpDwCHWxu57RXTEQBhff1G Q4ABsB+MAtgQwPFG9pYACq4f5JcWrSOrb/cuyHQAEHD94HXPtI4sQD8DgAH2g8p3W7r7ElO3LqIH wLmEh2tNh9ca/ecHAYxwSeD7k/+HJ8c8BEDDjQcvd478Pp1/9+QY/QwABtcPXoZ3v//X/+PJMQ8B GAC7gXMt+Pt0Jk8lZG4AtguAhusGTn3q9PsER/NsAAk3HDqPiL8AtLuXsQ8B4HD94HnX+BeAdPcy TwFggN2Acx/+KJwff99CxPoA+O76q59i+92quPPjnwOgwIZD7hsRPG9lfA6AhOsGuPt2PKcvfwwA h+sGBjeAcdUZdwAO1A6rjnoAz4L7ITVs/sulJ4AGGw65suB+yDIPBVBw3YB0AkjXFSafAyBQu4Ht +K9BANEpCZ7S0Qr3Ud8AzvdTy9uyUTcABtcPDk4A5/upHwRwyt3g3cCxyE8EmFoDoHYDx+ne43d7 B5DdACTccEg6AbQjxz4JQMD1g8IJoBw5NgAwDh2zYGU/yJ235EpHjpW3NYN+AAMcwFABoPoBGLBC 4N4NLMcLY08CaH7+BW+FSu8G5tOF4QWYDr/aHkDCATi3RjFHL/soAA43IyCdK6KOXtYPsLcHYHCl oHCuiTsqoTuA6QdwTF2AI6tvAB0FGPsCaLBamDkB1L2XvQNApaHK1FVbhzoB5L2XfRaAgAMwNnQL 3eYDGPoCcLDBwK0QGE+fHwBgULVYZcNd4K6mbwB272UfBmDAAKRrcyC7dzLyOnXKuwJosMEbDepw AAAgAElEQVSA+37MeyfjB1h6ACiwWpiXAoiuABIMgDk3CJtbJyO9k+ddADjYYGAIA8xeAN1tUvjy vQGW1d8N6j4reNspa7oCDHAA+jMBDNRg4FIIrJd/XOMAUxcADVYLux6o4pgVvN0u0BlAgdXC3HWr 2H2B+GkAEgyAuQDu06L8Om9k+k0Kn49ngcun35z3FfKnATCwWtj5QOX7CvnTAAawUtC5A5/fcuzt IYy236Tw+Xvb4fLp9/myKADrDaDBAKTjJhTHZsnLrAHvDaDADsD5tP17jr0ACNtxUvj8vdX2w879 5/fNkhcA2RtA4BQCfoDL/WqqNwAHA3C+fu6+W/QCoHtOCnvSFAqA88HT+wMABrhSUDkWm+85Vp8B THcAAwYgSwBs10nh0wGtcPnUNfwfHfXSBlmKVzfcDRdgcgIADsaqG251P8Qd60z3Xlaepk1EfwAB V4s6AHgEAG4+AuB7AwSY/fMN5136qj8AA5sWPXTxs3++wfcK3KkXwAB3CK4Z1lvPyB4HADcxrxyN yYRrYWs7TwgNkGtT0pFOjL86fgqAAuuIXGP7+z3kyg3Q7fy/DxuuFNxCl4V4GgCHLwWd9weMwW5g 7wfA4AGW0IwTexrAAHYMrvu/HDNO5mkABuwyNPc+nd8HSM5uYOsIoMFLQWehuTnmDWz/0fAAec+K vjdnZiProw8AgLtvzTiuZ0ep4wJYOgLA3bv6b47r2dyrff0wAA5dCk6RIaIrCcwdAeB263JHb2Lu lzl7GMAAXAv7Hp3leTXxAwAMVF/MHR8jHbWOetJ0wAB535YJPkV2CHSEY08AuHs39b0dOe9KeRiA BAOQQYB58HeEPc//+xhHiCTgf5a4996x3gAcNRO5BjzsSYNB7Kd5Oc/SPGgwiA1gUrqBtSvAgFqQ a0c3IJ40FDh8SSjfg3J0A08F2JABFi/A/AcDuDaOiEdVwsh3sAtHNyAeVQh+TWTglCPcUe6IR9VB kKVgqJM9tHTxqDro8CWhtERHspdPBZgwM8whC+pHFYIHAJTeSN2v9YcVgt9fEko9cn9qHX9YHYRc Ct4fXqofVgd9H9GKeoF9XezmYXXQ92WKkozYLd3bh9VB35cpTnd0PVVuH9YLHi5T1Azz+2qXj+sE vr8T1Avs9qzRx+RA5FLw+j6T56WA7zw1oV5g11sFH5MCkF90ws/N/YEpAPltT+x8tg9MAd95aUFt Xz9LjQemgO9EvaK2r78u+EemANxS0Lc9+CFj4VNPtaF+ujuWJwAI1OYoggDTEwBwS0EeBHjC+X/3 VCPqpz82BXz3VCPqpz82BXwfIs4FqZ+eArBf/KmengKQp0VD/eD+CgDx+ByIOy0a6gcfkgKQa+EB OAXIEe0q3XGvMKArwMx4aQr3CoMBYAipCnde2N8PjmUpZcUDwCkFBegVIBCuVNwVcm83sJRer3hH iFMKMsgr4McFNaIdIQ7AAFoFaYSGypAHZwZyJGgwvifkSXoF+dQElO8JuTaXkOMAlO/J4AIIwCuA oVSsyO874oBXAEMp2LDfeQZ4BTCUekUjL1QZuNlAhtJdY7/4UcPdKocMgDRDoeDmghhKvSKRS0EB d7swQ6lXJHIpyOGmgxlKb4X9uhsGtyDCUHorgb1hBW5bBENJ1hx7ntqATYczlGSNDqDBNgZxlGTN sJdqJNiKGEfJVehvOhBgW+M4TkvFBuBgC0Icp6Wi71oDWxHkOF8U+huPDNTeSI7zRaEDaKhNARzn ONFf/KegdgdznOPU2Jt2JNSaOMc5ToUNIKB2hXCcik1hDwbAniTPcSo2iV0LC6iOluMULA0BgIrW Een4dmyAGQgAuB/kzQYDUAAzFsD4TgD2MQADUn+NvXXv8QCm1cQ4FAB0waI/BsAgl4LLhwDsWADr SwHk2wGEbbRJpPoS0zgVG0euhR8PwD4OYEQCsC8FwJ4YhwNQSCWr+TQA6IpN4w4GPghgfjiAtMjz wp8C8I/PGgzAA6DVwm8FQN4mBAcgCAAHAHmbEAGAAXAkAPZpAOCDlo8DwBoNIT9MZ30sgPkQALSn /70eAPe+IQSA+aUAAwFgj4dHAvgMgPWtAFgPg5efBrBhAUwvBRCfAqCxZ0ReDzC/FIC3AdjAAOxb ARQ2wPJSAPZxACMBvBMArWJDXRnBAJgJ4IMA5AcAtHn56AbXmAjg7QDQ3ZXGXBggADgA/tkAOxwA 1qzo6wFQVkbEBwDIDwFA28pBAJgLA58AID4NYH8pwEAA2LOiEwEQwKMBDPasKAYA/ySAmQAQASwg AHRT/RQAjQ2wfArATACwYQjgMwAUNgDG0pDAAMCaFSWAtwKoDwGQ2NPCGwG8FEB+GgDWtPD+cADx iQDMwlUvAntWlADeDmAfDsDRZ0UJACEIAANgRAIYnw2A9gxg1gRgJAACeDzA9GwAvGcfEgABNACY COBRn+X84BkBwHwCgPkQAEMABEAAqADLWwE0AXwGgCaAPx3gXzsBYK6PZwHo8dUAPPZDnw0QLzJE 7IdeALC8HWBNOk7wkhVzh0QewPbnAWRs75SxdV90gL07gO0LYPsCqNhsHwFgAWDeOZgJMCV9UWgA CDMiKg9gfjvA0hdg6QogY7UYGgDasxnyAba+AFt3gP3tALYvwN4VQMQGemjJGvO1k7kAc1+A8e0A U3eApUd3DbmftQKAx3pivHoFEUBmAmx9AZbuAHtfgPWlAAavEsoFsH0B9p4ALNYTNwCw/QGmHgAa rxLKBpjfDrD0BZg6Agyxjog1AJi7A2w9ABReJSRyAfa+AGt3ANsXYOsJYCJ5GA9APglg6gqw9weY uwLY/gBLfNA2ox0lfCWUA6DfDqBiHVELgKk7wNYXYO4IIGN5GA3g+75s8ASbD2D7AqwdAUQsDaHd 2cEeBTB1Bdg6AvDYT+Ld22PRSsECgKUDgEYrBXMAWOwqNPgLWE8A2DoA4JWCWSu6/QAYWilYALB3 ADisDMwdAUzkKjQNtvNBl4IlAGMOAL9+MCs6A/kIAB25Co3jMrX3mGqOE7oULAGYMwCUA6CkluFY pWAWgMoGENYVBV8iwyoFswBk5Cq8ATDrjoIs+SSANRlAewAKyjmsFfIsABG5Cq8A0nf+BRcy1gJx CcCeCMCsP7IvAoVUCmYtafNII7wAmABA9vcoPw9Ahc4/O5cJpFo4C4BFvr0TALfhyKzo+JMAphQA G4u8psyQauG8bS2R7+AIIKMAmT0BUi3sBOC+7yeCdQQwUYDMPNgSQPi+ZRM+hAMAj59/5pkg7Rb1 AiyBg9jiACoBIK+m0zi1sBdgCxxEDGBMSIHZ+Vw1BtgDAHsUQCQBZJ2KxBkMeAFs6FuI5KnRPwoq 7wlFa4AxADBGAFja+WelQaQnd/sB5kAznCIAMhEg51yQ7pzyAywBgDkCYFIBcqq61gBr4KcjAP+e ev5ZadCgDAb8AFvgp5cwwP+bDJBzMroxgA389BpppOmRUdbhvMssADD6M/EGBpDRp+G8yMkJ4L05 hocvXVMAMOUf6t4IYAn0xXAA6e2ZtwPw3hvC4AH25wJsAYARDCC9FmINAYzn70Te9VAEkN6poQwG AgCu7yZ81EUA6eMB0xpg8gMscAA2H2BsBDD7AVZAgOSOEOWJlW4A750BBgEguSNEeVibG8C7Md4E i7EygO2BAN6N8SbYE5UBJF/SsjWA41rTwcxVCDBXHSsKgPBd6Tr4rRUCpHaEKM9UCwLYzERcCLA/ F2D25iFIgNQkwDDGw2GALS8RlwKkJoF2AN53PIZnZUoB1kwAyNGQdJ4R83034feLlwKknhDGYMAN 4G1sOACpSUAjAHjatG/cEZ6XKwaYMw92bAeweAB2UID1uQC7J2daUIA983qd0AF8z61BAkj8SkUP gNUDMIICzHkAMzqA9Hw5PDiNkQbwn8VJgLcDEJ5jC29XNKnftihLAhjP6NBRgFMTAAK4/2RaEmgH wD3NM7xfMx1AlCUBhOGgB4B5vh0WvGrTAW4/mnZKpg/A6vr3rQ5AFCUBDT8c9AAMvgs0CJDT5ZmS JNAQwHjmbYNfWQ6AKkkCCn487APQnrWL4IJODoAoSQKyHYDyTN2bUJvNWggpSQII79vRsWHfpQnA AeiCJCC6AWx3gKkUYB2c18CWAzCiAwjPCqYOZa3Q8ie/AvCCa4C3A+Ce70eHSsHg2t/to0w+AIMf D/umfpinVs0HmHwVhMxPAg0BBs94TYX6reDS7+2r5gVJAH487AUw7uSdCzAFSqgCANMRwF4AtgSA xfkf3bVGUhIw4OPhDIDlfOEmAGzuD/T1NOPDAf46wODzXYO7f+4lFMsfDsCPh3MA1tO3FgfYhjDA tRhMOCv44WAOgD032yjAFAOQ2UlA9gWYsgA23wdOvmJjTAbY+wDEDje4/881ijC5SUB8EMDm/cB5 KE4CHHw4WAEwhQGGBIDsJAAPYLEANj/AMhRXAgx8OFgBMAcBlhSA/EoAfDSEBjB7B97HS93kJoEn ASxBgDEJIHs4AD4awgLY/VMvx/SQnQSeBLCGANY0gCE3CWjo0ZBNnRBJAGDBM3ED5FYC6lMAxgDA 7p993lMB1gcAbAGAfUgEyB0OgI+GbOqkKCCADeSaWBIAHwxUAOwBgC0ZQOUlAfC1ISSAJQgw+hcg Yt8s9NIIqwCwAYDZn76uB5+XBDhwKegF4HUAUxBgGvwd4Zx4wPMDAEYQABGrL93X7PJsgDEdgOVl QeCNYlUAkx9gCALMgaI7lgUNbCHwBACZlQU1bCHgBUh5Gtrs/bA9UMMFN2XG0zvwXSNIAFsOwJCV BYFvmqgCWLwfFnoK1f0/q5wsqGALgUcAiJwsCHwHtRdAFgDwYDPm3pECz8mCwHdQVwGs3lOcswAu HeGUBgBTCPB2AIGxos7IgtyCFgJIAFMYYB9Cf2xNa7M7LoBKANi8HzbmAfCMLMgsaCGABBCeerj9 dxYeZXo+BhdAJwDsUABZWdCCVkKgAJHn3Rl/T6czpgQaAZimADlZ0ICWglUANg9A+xs5z9gx+UcC 5GRBA1oL87QRWibAFh7GOI49Iws+CWAEA8jIghp0MOADYI0BMrIgLICABIg891YGyn2RngU16GhI pE1TpU0Khp+wkgFgkwC2TwMQgTb+L+lTAhp0NFQHMIMBXLqBOWVODBVAIADw0EWePiXwCQBLLcDW HSDtFRFLFgBL20MWO7f2AHsqgKoAGJKzoAKdEPABHOdDNg0DMAT7OZ1aDMv2ADxxUlBFknjwG5ap WVCCTgj4APQpI2kYABP6hpNrwfYAq7cqgARgqVkQ9t2baQC+JrDlAehgpZOaBdsAmDOAyAOYogBL LAtuCQBzOwDPBNGeB6CCA16ZCCCaAFyvdJECoKsARDbA0hDA3QQyAWTw/FKzYBMAduuTRcKkoI5k MBE+v/NH/+1hAO61smIAO8Sy4Bw/5LUpgLMNeM4gOgHp/BGZBsBbAHBXWcogAcbwfw6cXT+A6GMQ Y1v4WHi0k5gFeeIKUhWA8DTG8E1eJgNgDpfKgbFeV4BrLswDGCIAKmlE3Bng/D1lApjweFckZUGW fodVOYAMHYmCAFiH0izYH0AWA+hIqZtUDDcBUKGLUfr+UzWATsmCLHUzERqAKAZQkV5OpkwJNAHQ RQA2A8AOpVmwPwAvBpCR75clTYwm31vxPAARa+AmJQu2ADD4AFPsGom+474ZwOhvqHMeAI9d4SIl CybfXVMBYHEAWOwK5ylZsDvAUAwwRFNcShZ8LADLAlhjpVLCC75nLAAWzkXlACZ2djJhSsB0BzDF ADp2dilZsAEAD38PJjKRmARgo2ky/npngGlhWQKgiwFUxtdr4283RgMQRQAJL0eX0a9XxacEWgNs gYPMBRDRXj4hCyIBzM8AEPFi2EDOi7sBZCrAmgnAoxe4iGfB1gBr4JdW57H7AVh8zi9eDGt8ANUC YBvi3cAaBtiaACyBZpoLMMTrPBkthj8awESH+/Es2ABAFwHITIAxmifdP6Mh58UTAObAMW65ADpa CbFoFmwAYNAAVM58h6evBAVQcYAp8CVlA8j4fEd0YlRDzotDAqhMgDV+lTg/SuEDxKqxcgARLwRU LAsiAUzJM2I1ADwOIGP8CnJe3AnAkgF2Z9tNBNhTCoHlkQCmGIDFFz6iuwTwAXisGCsHGOJTftG9 UgpyXrwMQJcDmPguoNhNpLItwJ4MYHIB5oRCwHGO+AACEUDHK6HYllkJuTJSBuC+cy0JQMUrIRXJ ggISQLsAokNyIICkQmB7IoD71r2kMYrMLQRsqJ9cGgCssAAitxC4d5b4ANHFCREGCJXoPLcQuDdz JICxA0BSIbAEgFYcAB2bkhCu30rbvsayAdY/C2CwuZXQ3h7AxA4SCiBlTii4QeNRADxtqs5kzgkF t+hsHwig45XQBWDyGyIBRNcnoQD2JIAZE8A0B1DxSkhFugFsAFYGINIAZLwSUjY8GoBcGDCOLyM6 IxYD2JIBpoTR0P0sPxtAxAsBacP9IDZAdEasCoDHC4HYa+nVMwFkAcAabyTh29ZQAEQtQLA+Y/kA i7+F4APs0ABDfDv09aE1awuA3XMJpgOoAoA9CWDzA4zoABs4gIlWQtf79Hf/JfKJADpaCbHwXfqg AC7l+HbdCMCSOBPvq4RuANNHAOgSgDlhSuj2UxxwacgFEJ0QqgOQ8UrIhvtBFICtGYDI2RDv/CnW EmDGBdieCGDKAFJv5eHxQkCHCwEGuDYWBZjAAVj8jgAdKQT+JIAxBcC2BYgfoHNlKPlutvjnqyvA 3/AB1mqA5KOKtzAVKQQA7xqKAgwFAFMGwJwyI4IH4HpBHsMGiNcZMQDdDmBHAIiX2j0AlloAVgaw pUwJ+d8CtSIA8HilVgeQM+HiPk/1cIDIGDU+58ifA7AiAMTvCroB+B5gXL02xhxpBh0gvvR2mxHZ fRfRjgAg4uN1EV5NiE3TRG+Luj+887MA0ufiPX/hQQAzBoCOXmQ2PC0qUAEkOoB6DoDrPbEJ69eV APF5dxOeF+4OIMMLarG/Gl97iwBwVABVC7Cn/9X4/dHOSzGjtdUCjBgA8TmhDgBjQ4D4LiwdHg0x VAAd38ZVCxCdElEfCCBLAZYqgLEOQEQA9hKA+AAlWgnJyHAQAcD99cQA9jIA9XaAjJuS3D8EtjYm IwAbDkC0EhIRAIMJYMsAciYpopWQiEwINANYSwDi01TsMQDK8QcaAEQXn2IAGmptzAHAcgC2QoDY 6piIzIg0A1giv1YKENuD0QxAwwFkLVaobIDR8/tQAJsbYC4BWHKSr/vn0wEWcADeAiC2UYq3AjAR gCnithYCxFaf7gCTpwV9KACLVVvNAVZ368wAMFl5KVYL2/CUkMzJuEnH4QEYsQBiW8YjAKIzgKkG iG0ZN+EZEUwAGZ8QAgBQzwBgtQBLKUBs8SECAPXCNUiAvDmK2AKkCU8JwQMszsa5x66cYoDY3YO6 DQDvBsByATbPr+MCbGgAsVmHZIAdHEC3AYjMPOrwjAgUgCgDcO0qyF2riKw+RACGRgBrNwAVmRFB BDBtAFS4t1WR8TDQ4qCMACx4AJEHScQADDTAnAPAw7sLx7zG50ybKjIeBgJwTa3ZHIDJBZDZAT0Z YE4HEJkAkalHGRkPa5jV0Y4AQy7AggHgmF5PedqbCO8ty5yMcl5qLwDQmQCrp+0+D2DPvfzCL7JB BTARgDEGMDqOKBEg/KaB+8rI5gGYYAAmZ/c0xo69AiD8poE7wN4DYEgH0LkAvApAwgBYDIDEKQqW CWAbAYgsgKEcIPzSqXSAueL8WQRgjyZw19W0ZV9/jj90Xxw8JyTxBwDoUFPrByATZsR0cGdRKoDK BJjgAVxD2HqA1LUamQkwx6ZyugIUPOxYhAoO1gTA9UQmFZ8Rc+0qKADgmQDLnwbAQoOOZwAssR7c ua8k+YgyAdYHAqxVACYPYHP/9xUYQJcBlLz3Q4d+pwmAjADMsYu3DkDlAeyxL6EKYCgCWFwfNRUA LM8EmGL9Vx2AzAOwsURcMylsnXOVZQBjQQpaUwDG5wHMro9KBuAhABMBMC0AolOCc/CjMiqhJIAJ HMA1jVUIoEuWa0OjjmSAHRgga0JoKp8SjM0hmMhoCATAdAYI/dKTAVxT0qYEIDSVriOjIWCALW2q 0r8qY0q6JZkHsLqPHWRSuBrAllRmoRXlxgBr2mz99dgqAXgewPY8AFeXnjE+D+0ragHgOuoUAAMF ELoLXkVGQ//WAGAtApiLsnA2gARYH3fN4vAcgN31UTkA2j/sUJHhIDDA7AKITghVA6hyAAEAIOAA RMF0wBBc4pSR8XBHANde/cJ3PggIgAkCYHIBzOkAhe994XkAUwMAkbNLsBqA+VtbDIADAMgIwBRz W4Ozi1mFQG+AMQPAdduqKgQw3i7XsUXk1CQ5wPq4wgDIG53qYgCGBCDjM2IqeJvJXnYIW2eAIQNA BwG2sqswCWABBtARgOivzdUAwttwHgxggreZ5K1Uce8fcwGsaR1I1ZSgigPY4JRgHgDzXm8PANij g+jJgZJ5ON4upy3A1g3A5ABswAA2DLBFB9Fj5XzIMQ/NuQCmfn28DECAAsgcgB0NYHX1DLFnCbpn xDIrc9ERgEUA1nSA8hcAct+V/FwAFQYYCw8iBcA6AYrXx50723Q0n+vwjNhYeB2uDwEwtQClffGe C6CrAUQEYE6vHipeBa1zAEZQAGnD947P6Z1nxTs/VD8AFQGY0lOnKgeQOQATFoCrpvWkswjAVnwh tgfQRQA83HluxRdiLoCqBjARgIzUqcs3rkqPtxNgBgVwftllAAYAYGoNwGx4VGOL+g5cgMUFULpL itvwqGbP6Dts+eDcNxx8LIAGnQ/xDwejALIWQNjwqCYDoOZV2MJD51oaO11g1QDShjc6bNG+YwQF WFsDqDIAV+osnw7oCaBteFi3RvuOAQKAe8CdABskgIEDqJgOeAbAlg7ALex8yPcH7gkAu+vaKQVw Xloy1qEJCzsd4F0cQwdgDwHwLY6hA/AyAAk8HdAPQDgLLBnr0Z03O8IATHEACwggbfhUPADaAm6P OAPMeQC8EkA5R5kq1qM7b3iuAfAtcqID6DIAAzwa9t4EjA5gbPi79ABYyO0RzwYYk2dRakbD3puA 3QAjHIB9CoDn/jdsAM/bhEykpInNosw1TTEPgNUBeB7rGwMQrqIECmDsBjAmA8RmUbABJjAAz4s0 YjNizh00UACT7wANAoAuA3DunxBAALOvrWEAGPcQoxZgqvkqliyAAQOAxaYETWQEVdUW15YAtgwg Vj9XDUoSAGYoAM/b3mKPRGMRgL0KYCsDKLp31vO+Px4B4M4eSQMB7D4ADQ/geeNjDEBEiocNB0DA A8gowNIKQMbuDbabG8DUACg3gIgAyEjxsOIAcOdRVQFo95prDEBFuo7PATBRgDni5gRYqgB2X9GN AOBZdY9NCptI17FU5eOGAMyz8yb2UDwbWU6bcQAYOACvB1i7AKyu67G2DHC/KGSKNJyMxZTUL8MH sMIDSA+ACk8J8rLFlOTW2A5AlwGI2FgICWAAB/BNtEXGdTIyFCh6nEcxgCoH4D4AHQZQRROpZQDa CbDBAEjfcktkXKfKdtc+D0AXAuiiecRqgMV9f1AFgHfXgQmfiynbXJrcJbcC4AkAWwTOuSqAD7CD AMhCABabRaoFGLMAZDGA8QKEB7Y8NhRAA9CgANdH9/+jBMC5r2r7DADh34MeHthG91UtgAAGD0B7 70OJTG1E91UhAcyuh3iWA3BbCqBieypKhgK+x5CdAFRwn1zlFXAoaiML/X8IgPJvPIqsc+vYUOAz AIx/+2lk37+JDQVqAaYWADywBz8CYLsBOJ+gWgggArehRPb928hQoOzJfsUAvAxAFgOw2FCg7BHH HoCTKySACtyLFwbgOACqMYAO3I8b3uohUIYCSQACEMAEdp6lAziHAp8BENp7GH4ShowNBbZPAGCh u1DCANE7DBoDsCIAHgJQwXPRsUnxskc6eWbVT3+MwwGIQA6sBSh7rp2JAoyQALIcwMR2F0MCMCwA FQLQwdYc21xb+HTTxgC6GIDFphELn3GdAsCC98zUlQF/cwIsqXPC7NMAQp3A4ViW1CnR4MuDcwE8 3AMmgOfVNXPqlGj1UKAxAE9sAXO4/5idLHgAAxiACLYAmwowwQ0F4gA7KsDsBpjCHegIVwkPkdsi sQHGZAAdA1jxAMI5YKwA2D0d3RjuQAe4oYBndT0BQJQAyFAKSAbYB7hKOA6wQQKoUArgwYTuZqtd FegNMCQDeN7CVj0U4G0BdCAFhB+O694kWV8JxwFWSAATSAG+Xbt3gNlTspeESAHgWABjOoD7/Tsc EmBz//PquVW+CCB0BRy6iC3cf4yAlXAcYMEDWCEB6p9mkwkgCwCYd0ng3EWs4f5jABwKdAUYMgCc twsBDAVUFGAGBOChKyA8I6adB1o/FPB8whlA4ADM3nNcgv3HCjgU8H0CEoAIpYAwgHs9uXoo4FtX aAGw+b/kOQgwAw4FfADnXQNgANKzMSAO4Kl5q4cCPsIWALP/S56C2WMEHApUAKgCABVKAUEAd8lX PxTwLaycN89JDIA10MqTAP4bxFCgI8AcABhDF8+vg2D/awJYFfBdRCoM8F/+WxmADl0BQYB7wSb+ mUXrhwK+i+h8A9/tzZxmKwMwoSbLEwHW321iBRgKFAL8+HOmDmAPJfqU7lr/82jqAXwXUQzAIgAE Z8TuvZX559EoNIDzDXzqAsBKASwEwMi3n8ewe4aIADNiEQD+46wrAbZAot9Dv/mPQey/vrojwD9a AogfObwAIFy4JQL82Lr868jH+qGAiK7UYwGEEv0+BIsk9eOX1QWgsBKWUYDNDTCXAITvcdSBy4Od b2Gafv70VD8Wkp7SNAqwlACI4ARW6LZRftxU9NfZ/vjp/6gfC/mmlM5Hqu8AayXAGkW4+0AAAAxJ SURBVAJYAwD7j9Yw/zzC/6iuhL033Z2PVN+KsGqA4JRHCGD78X8vP3/6f1b3gt6NplGADRyA2cQW 8Ff7++un/149J+ydUgoD6B/HUQcQnPJYAr+5/OS/ApS++9aTRS63cF4BTEeAv+5h237+9H9WT4n6 3m8YB7AlADJUBogMgP3nP9QDsDjAPNxfsmxORUgRQPA/zkEA/QVQXwb4xkLcA7B8A0zQACoLQNrg MmPtUEDEAeYqgL0C4K8MpELb7eor4Uu2ggJQaZVwcKA0D9YFUF8HrRkAFgPAZAEENxvV10GXWzjD ACXeW3KPfAX4G3MBQNdBFwDrAihofcH1b5s0K/7XUOBYhdTVQWUArB5gyZwrkKehwD8BLikAoA6a Av3VRQkFgKe2AOECKCwDvOphAF4KYJI6umCRsP0EYDBlgHdl6dxhX1/HJc5D0aYAP29l3zlMGeBd WUoA+HtBD/Q4AO+d1+cOm7cACC/yqOOU6Ol57yh10KXDFvAAU+hYAgD7z0x6BYCug7wAExTAUAkg YeogL8C5YpEXAIkBoIOno7//mHEAQNdBFwAFDrBXAlj4OigEoFsAGJuyT3R3PIMDpg6aPEezOHKX PM3JlwCEx0JBAOYCgK6DIgC6GmAFBoCugy4d9hXAIADw8BX9DcBdAIUpwP8EmjPAVdqcxgIlAEuw EAxslb7PhtaUAf7N9qf0wpwAfy/og7EAtnqA1QcwRQFWcIC5FYC3DjoDcHiAuRzA9SZI8Dro/J2L FgCyBgB6PigPYAEHmEIACqcOGn190uhYz8EAUDUA4HXQec+mCgPMBQBTKB+F7p13A4DXQR0ATCqA blEHnW/i1WGACQQgcj4WGWDNArCwAOr0qCZ3XRcEACgElyEwJ2rCAGMtgPnnVcTD53N4x69BqYNm H8A2OB6zUg8wnk/utPHfdT5hAIA6aEoD2F0AQyWAuOb2NRegsAwIrEaq48HcnjLCYAF+aI86Utd9 HwFcGRB4QdEJgIcB9iIAvp2uxMlEvtAgQGEZEHg/j8YG+Lnl//vclliL/qoDGFwnwP1p57SKK8IA WxmAPX0P/yvWokMApZ1AYOdyGICfANYiAPXVbkVSi9YBgLUeYAmt4d0KRggA/fU966S67guAw3UC gY2JOQBLAcD+V/FzHwT4L+mvtPzvcJ2A8n/EieY2cygAAL7R03KaDACM9QD+DnKKAswlAOwbLi2n fQH8D7BOIPRuvxOAPqabf4UB0MdbEFNymmsqtLITCNyic54ROwLw76cJ1ALsPoAlNnkD1AkE7lA5 Axyy1CK+nyjy94IU5ADgaUk9ADDXAyz+vxYHGAsBrO/Mptj8JVAnEHit1XlG7Dh5DgVgAQFKOwGe CnA8NvmjtcgTQOEA/PeB88QT8p5/cScQuH/nPCN2BDDfALYWYPKk94RfBekEAjernwBOqwfmR8KU xV+AuScvkfiNGvBOIHD3hvQBDA0Atuj8HVAn4Hx64V/9/Pk/8TPABgawwACUdgLumxfkX6DKA/Bj DLNfANZKAJnYpBV0J3D4xOX4j3NwRsziAyzRsStMJ+Deu6//AjjNiB1veWd3gAUaYM4DWAEA5mMB EAL451DgB4CCAZjdJzZFOy2YHOjcuCyuu8LOvf4q7gBzJYCqBBgBAMZrC7AegKUFwBgtXGFSwOCq g8QV4DwhNLcAiA9dYFLA4EL8t+u2uAuAxAfY8wDKUwBzlQEmDDA5AKZKAJ1a2kOngAAA982IjeoO MLQCMMApgLsuI9sfYG0PcH5bwXzdFnfcHqG/7lkpOwLHcFinbvnToGPh+41Qv1Hm64MuzGkoAAgw Or/YOQtggACYTuXmfN0XeOS+A2zNABRsA7i8RvT//Pob83XF5Hh5ggK4L+0pYSWveovsGeBn9pt+ tbL5etfk8c/ZG8AKDTAmzGDVzwWcQL9LYPMTQHsAZgyA5KuawaaA85Ny5U9MewXYzg/yY3eApRnA AJsCzs9J1d8V4Hx5qttxlQgUYHee1p4yfq+vg48A68+j+MfvxwJcBoMHgF/PbhhM8THEAbak1WyA K+D74369QmQffj2awQuwuwCmSgCWPrpLnT3MBZi/zlze5sHn85jBATAWA2y5AByyDzjdkP/zjvyf /992fcj7ccwg8AGWIb0bmGEAflW7v+9Lv64NH8cMDoABGGBO7UPgWsCvreq/Tuwf17HQ8ekR8gaw QwOETuq/+N62VDcp/OuM968y4LxoyA/HdgfYygFW54U9Ji9orkAAv8f3v+5Knq6LhkcABQugfz0T J2eGB+oC+AbYfh3Wr7uSp+ui4XHQdAfI/BqkPQ+t7veBJk9j1DaAL4D112f+OpbZ//yQryxpiodj 4gTguA1yT81d2wAFsPz6yF/HMl9feXZ8wcwdYC4HWJgDYEu8jPbq8/86i9/PCP8GOC8aHgHMDWCq AOBlT8VjAD3ACYD/Pj/164yMG2D7ArAwAKLwqXiyZjL8DjCp3wD6BjBfBk2HXFE2LR8FSMopehoA AX4/HffXsYzXV8DLw7EdeouyYiQKMA/N4vef5Kebca5TQCcAdmsBewXA/BAAe7oV4zYY/Ab4dXPj /mMBEQRAOm6BmjoC8DvA344A0++SWZfPSUUBxo4Av0cE/Pz9Hl6uK28Aaw2ActwBNHQE+HV6h4Pc LgDqkCzL5uVjAHtPAH0cGjlaAMSs5AlA32+BegTA5T4KeS4EcQG2ngDmMCg+NHD5fWz1KzMnAHN/ MOTaEOD6de72VubMR4DVtTQzVgLYkkIQCcAeh0ROAF6/NHX8iBl4sbN4SuwCoC8NXH4dmwTYnyHC APMDAK4NXH4dm4IF+A/g1d7iWWFHPXhs4OILQAMsTkYAxv4A2g9gAHYpHgD+Z2cAaWOxnw55HCBy VgRgeBTAdjpkVy9YBfB30E1vQ82hBHfiC3svEMqTtkggfwzA+Z6eTfxhADwKMJ0OeZcQvZZIaHOP ARjPLUBB5CyR0OYaBYsCnKF2jQ8wPwpgi7aUHRqgZSEYuBv5fEFy0JwlEi66pwAsUYAVGKBpGRC4 G/l8QTYE2D4NYAFud2tbAJ1UBkA/vMM8pROIAmzxemEC/qttOwH/7djn9gj88A7zmE4gBrBEAXbg dte4E4iNh6cowAace9dnAYxRgBUYoHEOjI2H4yXzDAwwPApgi/fcEyzA0hqAJw7Ngb8x85A+IDYc nKNHvMMCbEPzSByZGtikbZ5RBUUHA/Geu/Ca1c8oAmKV0B4HmEHdlw4AMm1gpoCTln7KFRDsB5c4 AOwgrMP5B/vBOdpQNtCGt/UAYGkjUwlcuYsnlMGxfnCPp4oFFGDsApA2MBPAQxfxlCsg1A8u7wCQ SeMcDly5iYd0gsF+cIwCbKB/tc/5+/vBPd5ZLJAAna4AfzewxQFmSPZuAGnjHOjSVTykEwxkwTkO AJl6ujUAbxIYo+XCBgmwdAMYigEWSICpH4BOGehp4I5bPGAuJJwE9mjBWHXVis4LIvHhwBrtuBdI gLknwJDQxzPowZt5SCfoLXPGWDPZIJvdPvQNHp+gVcDTF+YhVYBPYI/2W6CJZ+kNEO+WGHDlZh6U A12d4RbLWjMowNgf4HKRR6eOQPvefRgeJrDFLpIVFGB7BAAPJyUGW7r/27Ny4BVginxn9W1WPCwH XjJhbNC0gnI/IgeeBKZYPzGBtoB9eE4I//EI0CPmj8uB36e5R0cMENesfloO/P5u9tigEWTwrh+Y AyMAGnQJQz8xB/4E2CKHPIFlm+flwL+u9TXcRawDMMA6fEhw0O9LPGFCuGTiaIIGWIaPCQN5uPyJ RUA8ca+wH9dvVbywUF4HaID5kwD4Ct2gPqcHQLqi9uHdIceBgoKCgoKCgoKCgoKCgoKCgoKCgoKC goKCgoKCgoKCgoKCgoKCgoKCgoKCgoKCgoKCgoKCgoKCgoKCgoKCgoKCgoKCgoKCgoKCgoKCgoKC goKCgoKCgoKCgoKCgoKCgoKCgoKCgoKCgoKCgoKCgoKCgoKCgoKCgoKCgoKCgoKCgoKCgoKCgoKC goKCgoKCgoKCgoKCgoKCgoKCgoKCgoKCgoKCgoKCgoKCgoKCgoKCgoKCgoKCgoKCgoKCgoKCgoKC goKCgoKCgoKCgoKCgoKCgoKCgoKCgoKCgoKCgoKCgoKCgoKCgoKCgoKCgoKCgoKCgoKCgoKCgoKC goKCgoLij4r/DTmR+19NqbnDAAAAAElFTkSuQmCC "
       id="image10" />
    <path
       style="fill:#000000;stroke-width:3.41903"
       d="m 383.5813,1787.5304 c -7.37471,-2.9521 -19.35397,-15.6555 -27.62341,-29.2933 -4.2759,-7.0518 -9.39162,-12.8214 -11.36826,-12.8214 -5.51422,0 -16.36259,-13.9477 -16.36259,-21.0374 0,-3.4731 -2.19713,-6.3149 -4.88252,-6.3149 -6.55747,0 -10.05756,-29.251 -8.09676,-67.6663 1.25849,-24.6557 3.32276,-33.3037 12.00426,-50.2903 12.63155,-24.7153 17.66483,-29.5429 42.79802,-41.0493 25.38159,-11.6201 60.21346,-48.4901 68.20179,-72.1925 3.09213,-9.1747 10.13397,-29.7592 15.64856,-45.7431 10.54071,-30.5522 12.67565,-48.8206 21.77646,-186.3373 3.21954,-48.6481 3.16603,-73.0043 -0.2554,-116.247 -2.38053,-30.0875 -4.11453,-68.5516 -3.85335,-85.4758 l 0.47487,-30.7713 -28.31533,-22.75282 c -35.37138,-28.42265 -53.55116,-46.68524 -64.34863,-64.64175 -15.09817,-25.10872 -37.76303,-54.23409 -47.72295,-61.32618 l -9.753,-6.94474 -5.68716,19.56315 c -9.64209,33.16765 -20.68942,51.43701 -35.74935,59.12002 -18.61735,9.49786 -40.83722,9.1444 -50.33304,-0.80067 -43.7345,-45.80371 -69.6444,-67.05768 -107.20887,-87.94386 -17.2527,-9.59264 -58.90587,-52.08481 -72.726156,-74.19104 -24.384301,-39.0039 -30.655076,-97.86882 -14.143826,-132.77074 4.786322,-10.11746 15.676637,-26.15238 24.200702,-35.63322 19.352054,-21.52414 73.67088,-57.62702 106.38031,-70.70544 24.07291,-9.6252 24.7483,-10.21968 24.83606,-21.86087 0.11001,-14.58979 23.27587,-58.76794 38.72026,-73.84094 15.90541,-15.52294 65.12052,-47.73622 94.5755,-61.90349 38.88783,-18.7043 53.3966,-21.445 113.76661,-21.49045 43.47897,-0.0328 58.66129,1.28077 78.56901,6.79748 18.14784,5.02902 35.18067,6.83806 64.38307,6.83806 62.97572,0 94.61377,13.84019 144.01272,62.99893 35.41645,35.24423 40.85271,46.03919 52.64225,104.53363 3.22159,15.98397 8.26134,31.85559 11.19952,35.27028 9.66594,11.23361 51.54744,37.04272 73.21347,45.11724 58.68275,21.8699 222.90506,59.82314 280.53166,64.83335 10.9636,0.95323 21.0584,2.42816 22.4329,3.27762 1.3745,0.8495 33.1762,8.49968 70.6705,17.00039 72.4556,16.42718 125.611,33.15862 159.18,50.10416 11.8089,5.96115 23.2127,9.52908 26.8087,8.38774 3.442,-1.09245 16.3049,-12.23234 28.5844,-24.75533 39.8392,-40.62924 72.0178,-117.55427 63.7609,-152.42477 -1.8662,-7.88142 -6.3656,-28.94624 -9.9986,-46.81068 -13.8668,-68.18761 -25.8865,-104.99982 -54.1433,-165.82304 -22.0944,-47.55835 -30.5367,-62.54623 -52.0624,-92.4279 -45.1198,-62.63473 -49.0571,-70.07365 -41.2409,-77.91926 7.1561,-7.18315 60.8157,-8.11432 87.4629,-1.51778 13.1633,3.25859 26.2849,5.95108 29.1591,5.98331 2.8742,0.0322 20.5677,8.08303 39.3188,17.89068 64.3039,33.63366 117.2227,97.81564 168.5345,204.40497 35.3203,73.37052 46.8451,159.27724 33.713,251.29883 -6.4327,45.07665 -14.2531,69.93978 -37.4491,119.06067 -12.3581,26.17002 -16.2938,37.73336 -13.4426,39.49549 8.3035,5.13187 50.1841,40.00965 55.9392,46.58574 3.2914,3.76094 25.2869,32.58591 48.8787,64.05546 l 42.8943,57.21737 -0.1039,84.6724 c -0.06,48.9293 -1.3436,82.5075 -3.0404,79.5439 -1.6151,-2.8207 -6.3625,-18.9756 -10.5497,-35.8998 -11.1248,-44.964 -28.9183,-92.6859 -39.9284,-107.0868 -5.2895,-6.9186 -12.8561,-19.5029 -16.8145,-27.965 -9.917,-21.20001 -31.9791,-48.39458 -63.1936,-77.89477 -36.4867,-34.48285 -49.3929,-43.23879 -102.2827,-69.39154 -43.6484,-21.58308 -80.2908,-34.11141 -170.9516,-58.44975 -14.1035,-3.78613 -37.1819,-10.36206 -51.2854,-14.61315 -14.1036,-4.25105 -49.4905,-13.50555 -78.6378,-20.56551 -29.1472,-7.05999 -72.9963,-18.02732 -97.4424,-24.37188 -24.4461,-6.34456 -75.2187,-18.42017 -112.828,-26.83471 -109.31327,-24.45723 -159.71366,-36.08279 -174.37064,-40.22105 -23.1196,-6.52761 -88.34477,-33.90972 -97.00969,-40.72552 -4.50611,-3.54455 -9.2783,-6.4446 -10.60481,-6.4446 -1.32655,0 -4.46451,8.84674 -6.97322,19.65943 -10.76233,46.38576 -27.89202,69.6879 -54.33706,73.91663 l -13.99342,2.23765 0.002,46.97127 c 10e-4,38.68806 1.2073,50.14315 6.83807,64.95788 3.76001,9.89263 6.83635,25.42204 6.83635,34.50983 0,26.7291 -21.04711,79.26187 -38.12566,95.16006 -13.53516,12.59971 -53.64966,30.91875 -101.32868,46.27363 l -45.43093,14.6308 2.13375,34.1903 c 1.17355,18.8047 3.37636,39.0495 4.89513,44.9885 1.51874,5.9391 2.52608,68.2509 2.23854,138.4708 -0.48126,117.5243 -1.11118,130.2544 -7.92466,160.1534 -4.07101,17.8645 -8.35253,39.5877 -9.51448,48.2739 -1.16196,8.6862 -6.03442,26.3797 -10.82767,39.3189 -4.79327,12.9392 -9.96141,27.3722 -11.4848,32.0733 -10.92787,33.7238 -30.52173,54.8112 -64.99114,69.9451 -12.22304,5.3666 -25.79724,12.0758 -30.16489,14.9095 -11.24382,7.2949 -27.88852,37.8379 -27.92658,51.2452 l -0.0308,11.3052 10.27132,-6.0674 c 10.01646,-5.9169 10.45519,-5.8836 17.68258,1.3438 6.97701,6.9771 7.15747,8.4731 3.07986,25.5336 -2.38224,9.9672 -3.77426,22.7379 -3.09333,28.3793 l 1.23807,10.2571 7.70393,-14.5308 c 5.89414,-11.1173 9.69565,-14.5309 16.18204,-14.5309 6.76397,0 8.4781,1.7282 8.4781,8.5476 0,11.5688 8.83102,11.0576 14.76564,-0.8548 2.57627,-5.1713 6.67531,-16.7575 9.10895,-25.7471 2.91212,-10.7572 7.65767,-18.6468 13.88137,-23.0785 10.87067,-7.7406 16.60148,-8.303 28.65302,-2.812 6.55114,2.9849 9.78804,2.9417 13.55048,-0.1808 5.21563,-4.3286 32.82188,-44.6164 39.36105,-57.4423 6.02277,-11.8132 27.65761,-81.3976 36.45481,-117.2502 11.46183,-46.7122 25.20035,-87.0242 49.13361,-144.1694 11.55106,-27.5804 21.91712,-57.8737 23.03573,-67.3184 1.81933,-15.3615 0.9789,-18.5461 -7.97038,-30.2011 -9.89461,-12.8845 -18.25271,-29.1019 -18.25271,-35.4135 0,-1.792 5.61115,-3.2582 12.46925,-3.2582 9.22776,0 16.32765,3.1617 27.31184,12.1624 16.0904,13.1849 49.12758,24.757 115.78485,40.5564 38.52695,9.1318 59.83306,11.1847 59.83306,5.7649 0,-8.0724 -15.66864,-52.3508 -25.5349,-72.1598 -6.08796,-12.223 -12.03585,-27.273 -13.21753,-33.4444 -1.88929,-9.8668 -1.07259,-11.6298 6.76841,-14.6109 8.28456,-3.1498 10.6375,-1.5362 33.17856,22.7526 59.32454,63.9246 81.70436,96.7013 98.98394,144.9688 16.6088,46.3937 16.3521,108.0758 -0.66965,160.9262 -15.85689,49.2334 -63.78453,121.3199 -93.66748,140.8822 -5.0932,3.3342 -9.26038,7.9644 -9.26038,10.2894 0,2.325 -3.15881,6.2 -7.01958,8.6111 -5.75704,3.5953 -6.83321,7.2792 -5.98331,20.4819 1.26255,19.6129 8.65514,21.6783 14.78718,4.1314 6.72031,-19.2302 18.65991,-37.1263 26.41048,-39.5862 8.48234,-2.6923 16.25264,5.9211 16.25264,18.016 0,10.94 5.64164,9.8681 11.91533,-2.2638 6.64164,-12.8435 18.53559,-24.0324 25.5468,-24.0324 2.97083,0 7.94186,4.1868 11.04682,9.304 l 5.64533,9.304 6.25844,-11.1271 c 3.44211,-6.1199 16.13054,-25.3077 28.19651,-42.6396 22.57634,-32.4291 48.88834,-84.2865 61.09364,-120.4073 11.6014,-34.3336 31.4188,-124.5556 34.9212,-158.9849 4.3694,-42.9513 4.2871,-102.6992 -0.1856,-134.8567 -1.9846,-14.2684 -9.6774,-50.0819 -17.0952,-79.5855 -15.4266,-61.3579 -16.1031,-69.329 -6.613,-77.91745 6.6747,-6.04054 7.1453,-5.98372 16.2404,1.96115 37.5089,32.765 47.8802,48.3341 64.7653,97.2232 7.107,20.5777 8.2728,30.2847 8.3151,69.2354 0.054,50.0398 -0.6975,48.7009 22.7077,40.443 33.5578,-11.8398 71.9311,-15.9286 149.4916,-15.9286 78.9967,0 107.869,3.1613 156.0715,17.0887 17.9793,5.1948 87.4323,35.7314 109.7272,48.244 3.2737,1.8373 15.65,8.4854 27.5027,14.7734 22.5027,11.9379 156.2627,99.7249 168.4286,110.5401 3.8493,3.4219 11.1575,12.3484 16.2404,19.8367 l 9.2416,13.6151 v 183.834 c 10e-5,103.1765 -1.3163,183.834 -3.0003,183.834 -1.6502,0 -4.7185,-2.0702 -6.8184,-4.6004 -2.0999,-2.5302 -9.82,-7.307 -17.1559,-10.6149 -34.3902,-15.5079 -34.6595,-72.3805 -0.5836,-123.2554 11.0158,-16.4466 19.2213,-59.4693 14.3612,-75.2976 -1.7189,-5.598 -4.8995,-16.7171 -7.0679,-24.7091 -2.1685,-7.992 -5.2325,-14.5309 -6.8089,-14.5309 -1.5764,0 -4.5821,11.5373 -6.6794,25.6385 -3.6502,24.5421 -28.5579,99.4031 -41.6018,125.0357 -12.3105,24.1912 -33.5934,46.5669 -64.2913,67.5923 -32.491,22.2535 -53.9695,31.093 -70.9036,29.1805 -119.7322,-13.5227 -126.8056,-14.8301 -142.4565,-26.3306 -5.5589,-4.0848 -13.6927,-14.4784 -18.0752,-23.097 -12.5501,-24.6813 -5.7535,-44.3308 29.5026,-85.2941 35.6718,-41.4464 46.5937,-78.4712 34.8934,-118.2871 -5.729,-19.4953 -9.7598,-24.7099 -58.143,-75.2187 -73.5247,-76.7548 -124.0928,-152.681 -124.0928,-186.3208 v -14.2637 l -48.7212,2.158 c -67.2474,2.9787 -96.9243,11.4484 -109.9916,31.3916 -9.8861,15.0881 -15.582,39.6761 -15.6209,67.4314 -0.021,15.526 -3.7408,43.7135 -8.9967,68.1859 -7.4877,34.864 -13.0831,50.2114 -34.0555,93.4083 -31.9837,65.877 -52.2362,96.7326 -85.7689,130.6734 -21.4465,21.7074 -32.71105,30.0053 -55.89475,41.1739 -39.25445,18.9106 -76.16607,25.4513 -108.4125,19.2104 -12.74297,-2.4662 -28.65084,-4.5406 -35.35077,-4.6097 -13.34243,-0.1378 -24.12154,-9.375 -36.0539,-30.8969 -5.69559,-10.273 -6.19856,-14.87 -3.55391,-32.4808 3.30928,-22.0364 12.92261,-37.37 60.01946,-95.7329 47.36193,-58.6915 61.99453,-93.6002 61.72289,-147.2512 -0.15351,-30.3124 -11.02094,-62.4137 -22.54872,-66.6064 -3.50666,-1.2754 -22.2144,-3.4261 -41.57279,-4.7793 -19.35839,-1.3531 -45.2104,-5.3238 -57.44893,-8.8237 -16.40763,-4.6922 -22.55665,-5.2909 -23.41233,-2.2795 -8.47551,29.8278 -19.15968,58.737 -34.61794,93.6692 -10.2987,23.2728 -22.479,52.2878 -27.06731,64.4778 -4.58834,12.19 -10.6203,27.131 -13.40438,33.2023 -8.04693,17.5478 -35.96589,86.882 -48.2596,119.8482 -6.74534,18.088 -16.55167,36.574 -24.48505,46.1569 -7.27837,8.7918 -21.58168,27.0655 -31.78513,40.6084 -19.41624,25.7707 -23.43196,28.5099 -64.92687,44.2867 -14.04672,5.3407 -33.41385,14.452 -43.03809,20.2475 -23.74151,14.2963 -69.60642,22.907 -86.33862,16.2092 z m 1245.2903,-68.3044 c 9.9068,-4.7242 14.7477,-11.4577 28.882,-40.1736 20.8628,-42.3859 29.9029,-78.6938 34.543,-138.7357 3.2379,-41.8979 2.9129,-49.244 -3.5541,-80.3473 -9.0301,-43.4301 -27.1558,-88.548 -41.5935,-103.5331 -6.1283,-6.3606 -25.7587,-20.1045 -43.6231,-30.542 -17.8645,-10.4375 -40.1737,-23.8553 -49.576,-29.8172 -19.9874,-12.6738 -98.7886,-48.8565 -120.8884,-55.5075 -8.3876,-2.5243 -20.3906,-4.5896 -26.6733,-4.5896 -15.1319,0 -14.9625,6.0546 1.1752,42.0158 15.8581,35.338 21.705,43.4656 69.1116,96.0702 50.4889,56.0249 59.936,68.5021 68.6168,90.6254 8.0729,20.574 20.3219,42.8557 35.2289,64.0835 8.6643,12.3382 9.9324,17.1908 9.9324,38.009 0,31.2638 -7.0085,44.7225 -42.9348,82.4493 -43.3021,45.4724 -53.3397,56.6488 -53.3718,59.4279 -0.059,5.091 10.7822,2.3639 32.2888,-8.1223 28.0955,-13.6988 39.4812,-12.0772 39.4812,5.6232 0,6.5458 0.7821,11.9014 1.7381,11.9014 0.9559,0 11.5437,-10.0006 23.5285,-22.2237 11.9847,-12.223 24.2804,-22.2237 27.3237,-22.2237 6.9227,0 7.1285,12.1712 0.4047,23.9332 -4.5699,7.9942 -7.0717,27.3523 -3.535,27.3523 0.8764,0 6.9492,-2.554 13.4951,-5.6755 z M 541.86093,975.27879 c 8.38942,-4.23105 15.29569,-9.48781 15.34735,-11.6817 0.0516,-2.19386 2.01002,-4.62756 4.35195,-5.40822 2.34193,-0.78064 -6.13538,-6.37968 -18.83852,-12.44234 -18.79196,-8.96856 -24.04609,-13.29548 -28.19129,-23.21632 -6.58167,-15.75216 -6.44638,-29.81402 0.46082,-47.90022 4.32419,-11.32274 8.73128,-16.08426 19.88413,-21.48328 25.20784,-12.2029 68.73191,-8.29539 86.48591,7.76452 6.40693,5.79556 7.30104,9.17972 5.52068,20.89534 -1.16842,7.68886 -4.99257,21.67256 -8.49811,31.0749 -8.05671,21.60916 -8.01318,22.2237 1.57443,22.2237 15.0326,0 29.2956,-23.2076 38.45973,-62.57837 5.40874,-23.23707 5.64982,-29.19124 1.86868,-46.15692 -7.83769,-35.16707 -14.27186,-94.36692 -12.15671,-111.85178 2.06198,-17.045 1.89469,-17.42209 -26.16353,-58.97252 -26.84559,-39.75475 -28.54693,-41.53898 -34.4849,-36.16518 -3.43541,3.10899 -6.24616,9.35225 -6.24616,13.87395 0,16.87672 -42.94112,56.19514 -55.92948,51.21104 -6.36753,-2.44344 -20.09402,-32.79029 -21.77314,-48.13654 -1.97494,-18.04989 8.00395,-33.45335 32.36896,-49.96491 26.58687,-18.01724 28.77673,-30.39731 11.40138,-64.45582 -4.34788,-8.52255 -7.05008,-19.24265 -6.4392,-25.54539 0.86019,-8.87496 2.70763,-11.05184 10.10625,-11.90844 7.61486,-0.88163 11.64029,2.37849 25.33006,20.51419 8.95202,11.85932 20.53618,26.1781 25.74258,31.8195 5.2064,5.6414 15.95959,21.79632 23.89598,35.89983 15.01178,26.67693 33.66126,52.37201 57.07523,78.63773 13.68581,15.35272 13.7308,15.37156 21.0093,8.80055 18.25934,-16.48441 25.14165,-91.46416 12.72256,-138.60657 -5.41899,-20.57022 -24.21649,-58.97012 -33.86407,-69.17814 -2.31219,-2.44653 -6.24777,-8.41877 -8.74571,-13.27166 -5.9338,-11.52788 -17.9385,-18.34909 -44.3207,-25.18352 -20.02555,-5.18771 -22.78146,-5.17158 -39.92906,0.23372 -17.83398,5.62167 -19.05095,5.57797 -38.3229,-1.37624 -47.00242,-16.96065 -90.00389,-21.76272 -128.28997,-14.32644 -45.9163,8.91829 -58.36855,14.48041 -97.69176,43.63654 -54.05803,40.08123 -57.63227,47.723 -74.22482,158.69327 -6.66439,44.57118 -6.57836,73.76469 0.26566,90.14472 7.1719,17.16477 38.5491,55.20403 71.03444,86.11659 14.34634,13.65178 26.08425,26.15655 26.08425,27.78838 0,1.63184 2.44837,4.99894 5.44081,7.48245 2.99244,2.48348 26.99015,32.28924 53.32821,66.23499 46.92967,60.48517 64.1594,77.7456 95.08741,95.25689 19.18945,10.86496 20.60203,10.91922 39.26327,1.50772 z M 262.92583,851.99128 c 5.92085,-33.32281 3.43771,-40.867 -29.61689,-89.98061 -41.42451,-61.54992 -55.4678,-97.4797 -55.50022,-141.99731 l -0.0191,-26.18359 -19.63392,7.37892 c -40.26541,15.1328 -65.841874,58.37935 -65.841874,111.33017 0,20.25133 1.319206,24.7355 12.190054,41.43558 6.70453,10.2997 14.0692,20.26529 16.36593,22.14576 2.29674,1.88046 7.55068,8.22944 11.67544,14.1088 4.12477,5.8794 25.27968,21.85572 47.01092,35.50299 21.73124,13.64723 41.09196,27.76657 43.02383,31.37628 4.08696,7.63658 22.89399,19.84201 30.60262,19.86058 3.90497,0.0103 6.47337,-6.57494 9.74318,-24.97757 z M 1610.6673,784.0836 c 16.9894,-48.56628 31.9485,-121.32622 36.0281,-175.23751 3.1892,-42.14435 -11.3604,-101.01786 -44.783,-181.21024 -16.2206,-38.91869 -51.3204,-98.01205 -73.6052,-123.92026 -9.7673,-11.35537 -83.837,-62.67385 -90.4594,-62.67385 -5.0856,0 0.8462,9.39106 31.5339,49.92365 52.3133,69.09586 84.4795,140.32059 101.6018,224.97429 6.5071,32.17169 7.6124,115.33967 1.8665,140.44859 -3.9458,17.24231 -37.3032,83.46827 -55.6931,110.56988 -5.5127,8.12413 -9.4901,15.21325 -8.8387,15.75363 0.6513,0.54035 16.0697,5.84289 34.2631,11.78339 18.1933,5.94053 38.1946,12.95307 44.4474,15.58347 6.2527,2.63039 11.8879,4.26503 12.5226,3.63255 0.6347,-0.63249 5.6369,-13.9649 11.116,-29.62759 z"
       id="path6220" />
    <path
       style="fill:#000000;stroke-width:3.41903"
       d="m 320.53422,750.2036 c -9.61424,-5.59978 -7.56354,-27.16341 5.00762,-52.6564 l 10.99093,-22.28844 h 28.10536 c 33.95048,0 44.1054,3.43174 51.77026,17.49513 3.21311,5.89539 9.3038,14.97814 13.53485,20.1839 4.63861,5.70721 7.69282,14.11503 7.69282,21.17729 v 11.71228 l -35.04508,4.05399 c -42.38606,4.9032 -73.97873,5.02727 -82.05676,0.32225 z"
       id="path6259" />
    <path
       style="fill:#000000;stroke-width:3.41903"
       d="m 1812.0868,1755.5525 c 0,-28.8584 0.4112,-30.6716 6.2473,-27.5481 9.2031,4.9253 28.3475,-13.5662 41.4924,-40.0773 7.7103,-15.5505 12.333,-21.2784 16.5273,-20.4789 4.6732,0.8908 6.0228,5.6606 6.8341,24.1531 0.9463,21.5679 1.5214,23.0431 8.9837,23.0431 11.3892,0 14.4407,-5.5942 16.9342,-31.0446 4.0724,-41.565 16.9542,-78.3644 27.4317,-78.3644 8.4839,0 15.7296,19.5362 15.7296,42.4106 0,23.451 6.657,32.6137 7.0688,9.7296 0.2611,-14.5071 1.6096,-26.7216 6.6054,-59.8296 2.7202,-18.0271 2.35,-28.8725 -1.692,-49.576 -2.8456,-14.5755 -6.9361,-35.7323 -9.0898,-47.0151 -2.1538,-11.2828 -5.0466,-22.0527 -6.4284,-23.9332 -1.3819,-1.8805 -3.5884,-8.804 -4.9034,-15.3856 -2.7127,-13.5769 -24.883,-80.72 -29.5907,-89.6158 -1.7026,-3.2172 -6.0812,-23.0044 -9.7303,-43.9716 -5.7935,-33.2882 -8.488,-41.0006 -21.2498,-60.8217 -27.9545,-43.4177 -54.3084,-76.8035 -66.0415,-83.6632 -6.6149,-3.8674 -6.7823,-6.6742 -5.1286,-85.9869 l 1.7095,-81.989 10.9456,17.0675 c 9.2287,14.3906 35.2113,92.463 35.2113,105.8029 0,1.993 6.3429,11.2883 14.0952,20.6561 23.4078,28.2859 42.5476,56.5822 57.774,85.4131 7.9449,15.0438 19.5046,32.7373 25.6881,39.3189 14.8152,15.7691 21.9256,33.4703 43.9492,109.409 22.5371,77.7098 27.1552,105.9382 28.6243,174.971 l 1.4317,67.2715 -14.3968,27.6725 c -17.5771,33.7853 -44.2483,67.794 -64.8153,82.6464 -20.5582,14.8461 -59.1821,29.3209 -94.8227,35.5361 -48.5268,8.4624 -45.3941,10.243 -45.3941,-25.8004 z"
       id="path6305" />
    <path
       style="fill:#000000;stroke-width:3.41903"
       d="m 1812.0868,1572.0433 v -149.4392 l 17.6076,30.6279 c 36.0707,62.7438 45.7348,110.126 35.7616,175.3356 -5.6998,37.2689 -9.0513,44.4239 -33.4769,71.4695 -7.1798,7.95 -13.0542,16.0275 -13.0542,17.9499 0,1.9225 -1.5386,3.4955 -3.4191,3.4955 -2.2272,0 -3.419,-52.0924 -3.419,-149.4392 z"
       id="path6344" />
  </g>
</svg>
